﻿Name,Tags,Status,Type
Interesting Questions/Projects,,,
Job Interview / Internship,,To Be Formatted,
CS resources,,To Be Formatted,
Business / Entre|Soloprenuership,,Open,
Project Ideas,,Open,
Exploration and WishList,,Open,
YouTube,,Open,Knowledge
Amazing peeps,,Open,
GSOC Tips & Picks,,Resurface,
Frontend (WEB) Notes,,Resurface,
Research Topics,,Resurface,
Interesting Blogs,,,
Assets,,,
FOSS Events,,,
CyberSec,,,
Tedx,,,
Rust,,,
English Speaking / Talks,,,